<?xml version="1.0" standalone="no"?>
<!DOCTYPE svg PUBLIC "-//W3C//DTD SVG 20010904//EN"
 "http://www.w3.org/TR/2001/REC-SVG-20010904/DTD/svg10.dtd">
<svg version="1.0" xmlns="http://www.w3.org/2000/svg"
 width="1067.000000pt" height="1067.000000pt" viewBox="0 0 1067.000000 1067.000000"
 preserveAspectRatio="xMidYMid meet">
<metadata>
Created by potrace 1.11, written by Peter Selinger 2001-2013
</metadata>
<g transform="translate(0.000000,1067.000000) scale(0.100000,-0.100000)"
fill="#000000" stroke="none">
<path d="M710 9316 c0 -15 -42 -26 -96 -26 -27 0 -34 -4 -34 -20 0 -17 -7 -20
-40 -20 -33 0 -40 -3 -40 -20 0 -17 -7 -20 -40 -20 -33 0 -40 -3 -40 -20 0
-13 -7 -20 -20 -20 -13 0 -20 -7 -20 -20 0 -14 -7 -20 -21 -20 -12 0 -23 -8
-26 -19 -3 -12 -17 -21 -39 -26 -30 -5 -35 -10 -40 -45 -5 -30 -11 -40 -25
-40 -12 0 -19 -7 -19 -20 0 -13 -7 -20 -20 -20 -13 0 -20 -7 -20 -20 0 -13 -7
-20 -19 -20 -14 0 -20 -10 -25 -40 -4 -24 -12 -40 -20 -40 -9 0 -16 -17 -20
-45 -5 -27 -12 -45 -20 -45 -15 0 -26 -43 -26 -96 0 -22 -5 -34 -14 -34 -7 0
-16 -10 -20 -22 -8 -30 -8 -6487 0 -6527 4 -17 13 -31 20 -31 9 0 14 -11 14
-29 0 -48 12 -91 25 -91 7 0 16 -19 19 -45 5 -29 12 -45 21 -45 9 0 17 -15 21
-40 5 -30 11 -40 25 -40 12 0 19 -7 19 -20 0 -13 7 -20 20 -20 15 0 20 -7 20
-25 0 -18 5 -25 19 -25 14 0 21 -10 25 -35 6 -29 12 -35 41 -41 25 -4 35 -11
35 -25 0 -14 7 -19 25 -19 18 0 25 -5 25 -20 0 -13 7 -20 20 -20 13 0 20 -7
20 -20 0 -17 7 -20 40 -20 33 0 40 -3 40 -20 0 -17 7 -20 40 -20 32 0 40 -4
40 -19 0 -19 39 -31 103 -31 17 0 27 -5 27 -15 0 -13 521 -15 4625 -15 4104 0
4625 2 4625 15 0 10 10 15 28 15 63 0 102 12 102 31 0 15 8 19 40 19 33 0 40
3 40 20 0 17 7 20 40 20 33 0 40 3 40 20 0 15 7 20 25 20 18 0 25 5 25 20 0
13 7 20 20 20 13 0 20 7 20 19 0 15 10 21 40 26 38 6 40 9 40 41 0 27 4 34 20
34 15 0 20 7 20 25 0 18 5 25 20 25 13 0 20 7 20 20 0 13 7 20 19 20 15 0 21
10 26 40 4 24 12 40 20 40 9 0 16 17 21 45 5 35 10 45 25 45 17 0 19 8 19 60
0 53 2 60 20 60 20 0 20 7 20 3290 0 3283 0 3290 -20 3290 -18 0 -20 7 -20 65
0 58 -2 65 -19 65 -16 0 -21 9 -27 45 -4 27 -12 45 -19 45 -8 0 -16 17 -20 40
-5 30 -11 40 -26 40 -12 0 -19 7 -19 20 0 13 -7 20 -20 20 -13 0 -20 7 -20 20
0 13 -7 20 -20 20 -17 0 -20 7 -20 39 0 38 -1 39 -39 46 -27 4 -41 13 -44 26
-3 10 -12 19 -20 19 -8 0 -17 9 -20 20 -3 12 -14 20 -26 20 -14 0 -21 6 -21
20 0 17 -7 20 -40 20 -33 0 -40 3 -40 20 0 17 -7 20 -40 20 -33 0 -40 3 -40
20 0 16 -7 20 -34 20 -54 0 -96 11 -96 26 0 12 -707 14 -4625 14 -3918 0
-4625 -2 -4625 -14z m3080 -1336 c0 -18 7 -20 85 -20 78 0 85 -2 85 -20 0 -16
7 -20 38 -20 51 0 82 -10 82 -25 0 -7 19 -16 45 -19 28 -5 45 -12 45 -21 0 -8
16 -16 40 -20 30 -5 40 -11 40 -26 0 -14 7 -19 25 -19 18 0 25 -5 25 -20 0
-16 7 -20 35 -20 28 0 35 -4 35 -20 0 -15 7 -20 25 -20 18 0 25 -5 25 -20 0
-13 7 -20 20 -20 13 0 20 -7 20 -20 0 -13 7 -20 20 -20 13 0 20 -7 20 -19 0
-13 8 -21 23 -23 14 -2 23 -11 25 -25 2 -13 10 -23 18 -23 8 0 14 -9 14 -20 0
-13 7 -20 19 -20 15 0 21 -10 26 -40 5 -30 11 -40 26 -40 14 0 19 -7 19 -25 0
-18 5 -25 20 -25 17 0 20 -7 20 -40 0 -33 3 -40 20 -40 17 0 20 -7 20 -40 0
-33 3 -40 19 -40 16 0 21 -9 27 -45 3 -26 12 -45 19 -45 9 0 15 -25 20 -80 5
-54 11 -80 20 -80 21 0 25 -51 25 -295 0 -244 -4 -295 -25 -295 -9 0 -15 -26
-20 -80 -5 -57 -11 -80 -20 -80 -9 0 -16 -18 -21 -45 -5 -35 -10 -45 -25 -45
-15 0 -19 -7 -19 -40 0 -33 -3 -40 -20 -40 -17 0 -20 -7 -20 -40 0 -33 -3 -40
-20 -40 -15 0 -20 -7 -20 -25 0 -18 -5 -25 -19 -25 -13 0 -21 -10 -25 -34 -4
-22 -13 -36 -26 -39 -12 -3 -20 -14 -20 -26 0 -12 -6 -21 -15 -21 -8 0 -15 -9
-15 -20 0 -15 -7 -20 -25 -20 -18 0 -25 -5 -25 -20 0 -13 -7 -20 -20 -20 -13
0 -20 -7 -20 -20 0 -13 -7 -20 -20 -20 -13 0 -20 -7 -20 -20 0 -14 -7 -20 -21
-20 -12 0 -23 -8 -26 -19 -3 -12 -17 -21 -38 -25 -21 -4 -35 -14 -38 -26 -3
-12 -14 -20 -26 -20 -14 0 -21 -6 -21 -20 0 -17 -7 -20 -40 -20 -33 0 -40 -3
-40 -20 0 -17 -7 -20 -45 -20 -38 0 -45 -3 -45 -20 0 -18 -7 -20 -60 -20 -52
0 -60 -2 -60 -19 0 -17 -10 -20 -85 -26 -60 -5 -85 -11 -85 -21 0 -15 -143
-21 -342 -16 -94 3 -118 7 -118 18 0 10 -13 14 -49 14 -66 0 -111 10 -111 25
0 14 -43 25 -96 25 -27 0 -34 4 -34 20 0 17 -7 20 -40 20 -33 0 -40 3 -40 20
0 17 -7 20 -40 20 -32 0 -40 4 -40 19 0 14 -10 20 -39 25 -27 4 -40 12 -44 26
-3 12 -14 20 -26 20 -12 0 -21 6 -21 15 0 8 -9 15 -20 15 -15 0 -20 7 -20 25
0 18 -5 25 -20 25 -13 0 -20 7 -20 20 0 15 -7 20 -25 20 -18 0 -25 5 -25 20 0
13 -7 20 -20 20 -13 0 -20 7 -20 20 0 13 -7 20 -20 20 -13 0 -20 7 -20 19 0
10 -9 21 -20 24 -12 3 -20 14 -20 26 0 14 -6 21 -20 21 -17 0 -20 7 -20 40 0
33 -3 40 -20 40 -13 0 -20 7 -20 20 0 13 -7 20 -20 20 -17 0 -20 7 -20 41 0
32 -4 42 -19 46 -13 3 -22 17 -26 44 -4 22 -12 39 -20 39 -9 0 -15 24 -20 79
-6 66 -10 80 -26 84 -17 5 -19 15 -19 106 0 94 -1 101 -20 101 -19 0 -20 7
-20 125 0 118 1 125 20 125 19 0 20 7 20 105 0 96 2 105 19 105 16 0 19 11 25
80 5 56 11 80 21 80 8 0 15 18 19 45 6 36 11 45 27 45 16 0 19 7 19 40 0 33 3
40 20 40 15 0 20 7 20 25 0 18 5 25 20 25 17 0 20 7 20 40 0 33 3 40 20 40 13
0 20 7 20 20 0 13 7 20 20 20 13 0 20 7 20 20 0 13 7 20 20 20 14 0 20 7 20
21 0 12 8 23 19 26 11 3 21 13 24 24 3 11 14 19 26 19 14 0 21 6 21 20 0 13 7
20 20 20 13 0 20 7 20 20 0 13 7 20 20 20 13 0 20 7 20 20 0 15 7 20 25 20 18
0 25 5 25 20 0 16 7 20 36 20 27 0 37 5 41 19 3 13 17 22 44 26 22 4 39 12 39
20 0 8 17 16 39 20 27 4 41 13 44 26 4 16 14 19 66 19 54 0 61 2 61 20 0 18 7
20 80 20 73 0 80 2 80 20 0 19 7 20 230 20 223 0 230 -1 230 -20z m6000 -190
c0 -203 -1 -210 -20 -210 -13 0 -20 -7 -20 -20 0 -20 -7 -20 -1746 -20 -1737
0 -1746 0 -1751 20 -3 11 -14 20 -24 20 -18 0 -19 11 -19 210 l0 210 1790 0
1790 0 0 -210z m-40 -685 c0 -8 9 -15 20 -15 19 0 20 -7 20 -210 l0 -210
-1790 0 -1790 0 0 210 c0 203 1 210 20 210 11 0 20 7 20 15 0 13 201 15 1750
15 1549 0 1750 -2 1750 -15z m-412 -1102 l-3 -208 -1562 -3 -1563 -2 0 210 0
210 1565 0 1565 0 -2 -207z m-5628 -1523 c0 -19 7 -20 205 -20 198 0 205 -1
205 -20 0 -18 7 -20 79 -20 94 0 141 -8 141 -25 0 -12 82 -25 161 -25 28 0 39
-4 39 -15 0 -10 10 -15 28 -15 51 0 102 -13 102 -25 0 -15 45 -25 111 -25 42
0 49 -3 49 -20 0 -18 7 -20 65 -20 58 0 65 -2 65 -20 0 -18 7 -20 60 -20 53 0
60 -2 60 -20 0 -17 7 -20 45 -20 38 0 45 -3 45 -20 0 -15 7 -20 29 -20 49 0
91 -12 91 -26 0 -8 18 -15 45 -20 35 -5 45 -10 45 -25 0 -15 7 -19 40 -19 33
0 40 -3 40 -20 0 -17 7 -20 40 -20 33 0 40 -3 40 -20 0 -17 7 -20 40 -20 33 0
40 -3 40 -20 0 -15 7 -20 25 -20 18 0 25 -5 25 -19 0 -15 10 -21 39 -26 27 -4
41 -13 44 -26 3 -11 14 -19 26 -19 14 0 21 -6 21 -20 0 -13 7 -20 20 -20 13 0
20 -7 20 -20 0 -17 7 -20 40 -20 33 0 40 -3 40 -20 0 -13 7 -20 20 -20 15 0
20 -7 20 -25 0 -18 5 -25 20 -25 13 0 20 -7 20 -20 0 -13 7 -20 19 -20 15 0
21 -10 26 -40 5 -30 11 -40 26 -40 12 0 19 -7 19 -20 0 -13 7 -20 20 -20 17 0
20 -7 20 -40 0 -33 3 -40 20 -40 17 0 20 -7 20 -45 0 -38 3 -45 20 -45 20 0
20 -7 20 -330 l0 -330 -2665 0 -2665 0 0 270 c0 263 0 270 20 270 18 0 20 7
20 80 0 73 2 80 20 80 17 0 20 7 20 45 0 38 3 45 20 45 13 0 20 7 20 20 0 13
7 20 19 20 15 0 21 10 26 40 4 26 12 40 22 40 8 0 17 9 20 19 3 11 13 21 24
24 11 3 19 14 19 26 0 14 6 21 20 21 13 0 20 7 20 20 0 13 7 20 20 20 13 0 20
7 20 20 0 15 7 20 25 20 18 0 25 5 25 19 0 13 10 21 34 25 22 4 36 13 39 26 3
12 14 20 26 20 12 0 21 6 21 15 0 8 9 15 20 15 13 0 20 7 20 19 0 15 10 21 40
26 30 5 40 11 40 26 0 16 7 19 40 19 33 0 40 3 40 20 0 17 7 20 45 20 38 0 45
3 45 19 0 15 10 21 40 26 23 4 40 12 40 20 0 8 17 16 40 20 23 4 40 12 40 20
0 7 18 15 45 19 27 5 45 12 45 20 0 14 42 26 91 26 22 0 29 5 29 20 0 18 7 20
65 20 58 0 65 2 65 20 0 18 7 20 60 20 53 0 60 2 60 20 0 18 7 20 65 20 57 0
65 2 65 19 0 16 11 20 80 26 55 5 80 11 80 20 0 9 27 15 90 20 62 5 90 11 90
20 0 17 46 25 151 25 82 0 89 2 89 20 0 19 7 20 190 20 183 0 190 1 190 20 0
19 7 20 165 20 158 0 165 -1 165 -20z"/>
</g>
</svg>
